<?xml version="1.0" encoding="utf-8"?>
<!-- Generator: Adobe Illustrator 25.1.0, SVG Export Plug-In . SVG Version: 6.00 Build 0)  -->
<svg version="1.1" id="Layer_1" xmlns="http://www.w3.org/2000/svg" xmlns:xlink="http://www.w3.org/1999/xlink" x="0px" y="0px"
	 viewBox="0 0 512 251.2" style="enable-background:new 0 0 512 251.2;" xml:space="preserve">
<style type="text/css">
	.st0{fill:#D5D6DF;}
</style>
<g>
	<g>
		<path class="st0" d="M439.9,86.7h-42.8L361.8,9.2c-2.8-6.2-9.4-9.9-16.2-9.1L196.3,18.2C137.5,25.3,84.2,57.1,50,105.4l-25.3,31.8
			c-2.2,2.8-3.4,6.2-3.4,9.8v10.6h-5.6c-8.7,0-15.7,7-15.7,15.7C0,182,7,189,15.7,189h5.6v14.3c0,8.7,7,15.7,15.7,15.7H78
			c7.8,18.8,26.3,32.2,47.9,32.2s40.2-13.3,47.9-32.2h188.6c7.8,18.8,26.3,32.2,47.9,32.2c21.6,0,40.2-13.3,48-32.2h37.9
			c8.7,0,15.7-7,15.7-15.7v-44.5C512,119.1,479.6,86.7,439.9,86.7z M338,32.7l24.6,54H226.3V49.2c0-1-0.1-2-0.3-2.9L338,32.7z
			 M194.8,50.1v36.6h-84.2C134.9,67.6,163.9,54.8,194.8,50.1z M125.9,219.8c-11.3,0-20.4-9.2-20.4-20.4c0-11.3,9.2-20.4,20.4-20.4
			s20.4,9.2,20.4,20.4C146.3,210.6,137.2,219.8,125.9,219.8z M410.4,219.8c-11.3,0-20.4-9.2-20.4-20.4c0-11.3,9.2-20.4,20.4-20.4
			s20.4,9.2,20.4,20.4C430.8,210.6,421.6,219.8,410.4,219.8z M480.6,187.6L480.6,187.6h-19.7c-5.3-22.9-25.9-40.1-50.5-40.1
			s-45.1,17.2-50.5,40.1H176.4c-5.3-22.9-25.9-40.1-50.5-40.1s-45.1,17.2-50.5,40.1H52.7v-35.1l22.2-27.9c0.2-0.2,0.4-0.5,0.5-0.7
			c1.4-1.9,2.8-3.9,4.2-5.7h307c0.2,0,0.5,0,0.7,0h52.5c22.4,0,40.7,18.3,40.7,40.7L480.6,187.6L480.6,187.6z"/>
	</g>
</g>
<g>
	<g>
		<path class="st0" d="M281.1,132.8h-20.4c-8.7,0-15.7,7-15.7,15.7c0,8.7,7,15.7,15.7,15.7h20.4c8.7,0,15.7-7,15.7-15.7
			S289.8,132.8,281.1,132.8z"/>
	</g>
</g>
</svg>
