<?xml version="1.0" encoding="utf-8"?>
<!-- Generator: Adobe Illustrator 24.0.2, SVG Export Plug-In . SVG Version: 6.00 Build 0)  -->
<svg version="1.1" id="Capa_1" xmlns="http://www.w3.org/2000/svg" xmlns:xlink="http://www.w3.org/1999/xlink" x="0px" y="0px"
	 viewBox="0 0 512 360" style="enable-background:new 0 0 512 360;" xml:space="preserve">
<style type="text/css">
	.st0{fill:#FF5100;}
</style>
<g>
	<g>
		<g>
			<path class="st0" d="M477.1,11.7C473.8,4.6,466.7,0,458.9,0H53.1c-7.9,0-15,4.6-18.2,11.7c-46.6,102.8-46.6,233.8,0,336.5
				c3.2,7.2,10.4,11.7,18.2,11.7h405.7c7.9,0,15-4.6,18.2-11.7C523.7,245.4,523.6,114.5,477.1,11.7z M445.7,320H66.3
				c-35-86.4-35-193.6,0-280h379.4C480.7,126.4,480.7,233.6,445.7,320z"/>
			<path class="st0" d="M337.3,162.7L214.7,91.9c-6.2-3.6-13.8-3.6-20,0s-10,10.2-10,17.3v141.5c0,7.1,3.8,13.7,10,17.3
				c6.2,3.6,13.8,3.6,20,0l122.5-70.7c6.2-3.6,10-10.2,10-17.3C347.3,172.9,343.4,166.3,337.3,162.7z M224.7,216.1v-72.2l62.5,36.1
				L224.7,216.1z"/>
		</g>
	</g>
</g>
</svg>
